<?xml version="1.0" encoding="utf-8"?>
<!DOCTYPE eagle SYSTEM "eagle.dtd">
<eagle version="7.7.0">
<drawing>
<settings>
<setting alwaysvectorfont="no"/>
<setting verticaltext="up"/>
</settings>
<grid distance="0.05" unitdist="inch" unit="mm" style="lines" multiple="1" display="no" altdistance="0.025" altunitdist="inch" altunit="inch"/>
<layers>
<layer number="1" name="Top" color="4" fill="1" visible="yes" active="yes"/>
<layer number="16" name="Bottom" color="1" fill="1" visible="yes" active="yes"/>
<layer number="17" name="Pads" color="2" fill="1" visible="yes" active="yes"/>
<layer number="18" name="Vias" color="2" fill="1" visible="yes" active="yes"/>
<layer number="19" name="Unrouted" color="6" fill="1" visible="yes" active="yes"/>
<layer number="20" name="Dimension" color="15" fill="1" visible="yes" active="yes"/>
<layer number="21" name="tPlace" color="7" fill="1" visible="yes" active="yes"/>
<layer number="22" name="bPlace" color="7" fill="1" visible="yes" active="yes"/>
<layer number="23" name="tOrigins" color="15" fill="1" visible="yes" active="yes"/>
<layer number="24" name="bOrigins" color="15" fill="1" visible="yes" active="yes"/>
<layer number="25" name="tNames" color="7" fill="1" visible="yes" active="yes"/>
<layer number="26" name="bNames" color="7" fill="1" visible="yes" active="yes"/>
<layer number="27" name="tValues" color="7" fill="1" visible="yes" active="yes"/>
<layer number="28" name="bValues" color="7" fill="1" visible="yes" active="yes"/>
<layer number="29" name="tStop" color="7" fill="3" visible="no" active="yes"/>
<layer number="30" name="bStop" color="7" fill="6" visible="no" active="yes"/>
<layer number="31" name="tCream" color="7" fill="4" visible="no" active="yes"/>
<layer number="32" name="bCream" color="7" fill="5" visible="no" active="yes"/>
<layer number="33" name="tFinish" color="6" fill="3" visible="no" active="yes"/>
<layer number="34" name="bFinish" color="6" fill="6" visible="no" active="yes"/>
<layer number="35" name="tGlue" color="7" fill="4" visible="no" active="yes"/>
<layer number="36" name="bGlue" color="7" fill="5" visible="no" active="yes"/>
<layer number="37" name="tTest" color="7" fill="1" visible="no" active="yes"/>
<layer number="38" name="bTest" color="7" fill="1" visible="no" active="yes"/>
<layer number="39" name="tKeepout" color="4" fill="11" visible="yes" active="yes"/>
<layer number="40" name="bKeepout" color="1" fill="11" visible="yes" active="yes"/>
<layer number="41" name="tRestrict" color="4" fill="10" visible="yes" active="yes"/>
<layer number="42" name="bRestrict" color="1" fill="10" visible="yes" active="yes"/>
<layer number="43" name="vRestrict" color="2" fill="10" visible="yes" active="yes"/>
<layer number="44" name="Drills" color="7" fill="1" visible="no" active="yes"/>
<layer number="45" name="Holes" color="7" fill="1" visible="no" active="yes"/>
<layer number="46" name="Milling" color="3" fill="1" visible="no" active="yes"/>
<layer number="47" name="Measures" color="7" fill="1" visible="no" active="yes"/>
<layer number="48" name="Document" color="7" fill="1" visible="yes" active="yes"/>
<layer number="49" name="Reference" color="7" fill="1" visible="yes" active="yes"/>
<layer number="50" name="dxf" color="7" fill="1" visible="no" active="no"/>
<layer number="51" name="tDocu" color="7" fill="1" visible="yes" active="yes"/>
<layer number="52" name="bDocu" color="7" fill="1" visible="yes" active="yes"/>
<layer number="53" name="tGND_GNDA" color="7" fill="1" visible="no" active="no"/>
<layer number="54" name="bGND_GNDA" color="7" fill="1" visible="no" active="no"/>
<layer number="56" name="wert" color="7" fill="1" visible="no" active="no"/>
<layer number="57" name="tCAD" color="7" fill="1" visible="no" active="no"/>
<layer number="90" name="Modules" color="5" fill="1" visible="no" active="no"/>
<layer number="91" name="Nets" color="2" fill="1" visible="no" active="no"/>
<layer number="92" name="Busses" color="1" fill="1" visible="no" active="no"/>
<layer number="93" name="Pins" color="2" fill="1" visible="no" active="no"/>
<layer number="94" name="Symbols" color="4" fill="1" visible="no" active="no"/>
<layer number="95" name="Names" color="7" fill="1" visible="no" active="no"/>
<layer number="96" name="Values" color="7" fill="1" visible="no" active="no"/>
<layer number="97" name="Info" color="7" fill="1" visible="no" active="no"/>
<layer number="98" name="Guide" color="6" fill="1" visible="no" active="no"/>
<layer number="100" name="Muster" color="7" fill="1" visible="yes" active="yes"/>
<layer number="101" name="Patch_Top" color="7" fill="1" visible="yes" active="yes"/>
<layer number="102" name="Vscore" color="7" fill="1" visible="yes" active="yes"/>
<layer number="103" name="tMap" color="7" fill="1" visible="yes" active="yes"/>
<layer number="104" name="Name" color="7" fill="1" visible="yes" active="yes"/>
<layer number="105" name="tPlate" color="7" fill="1" visible="yes" active="yes"/>
<layer number="106" name="bPlate" color="7" fill="1" visible="yes" active="yes"/>
<layer number="107" name="Crop" color="7" fill="1" visible="yes" active="yes"/>
<layer number="108" name="centerline" color="7" fill="1" visible="yes" active="yes"/>
<layer number="109" name="fp9" color="7" fill="1" visible="no" active="no"/>
<layer number="110" name="110" color="7" fill="1" visible="no" active="no"/>
<layer number="111" name="111" color="7" fill="1" visible="no" active="no"/>
<layer number="112" name="tSilk" color="7" fill="1" visible="no" active="no"/>
<layer number="116" name="Patch_BOT" color="7" fill="1" visible="yes" active="yes"/>
<layer number="118" name="Rect_Pads" color="7" fill="1" visible="no" active="no"/>
<layer number="121" name="_tsilk" color="7" fill="1" visible="yes" active="yes"/>
<layer number="122" name="_bsilk" color="7" fill="1" visible="yes" active="yes"/>
<layer number="123" name="tTestmark" color="7" fill="1" visible="no" active="no"/>
<layer number="124" name="bTestmark" color="7" fill="1" visible="no" active="no"/>
<layer number="125" name="_tNames" color="7" fill="1" visible="yes" active="yes"/>
<layer number="126" name="_bNames" color="7" fill="1" visible="no" active="no"/>
<layer number="127" name="_tValues" color="7" fill="1" visible="no" active="no"/>
<layer number="128" name="_bValues" color="7" fill="1" visible="no" active="no"/>
<layer number="131" name="prix" color="7" fill="1" visible="yes" active="yes"/>
<layer number="132" name="test" color="7" fill="1" visible="yes" active="yes"/>
<layer number="144" name="Drill_legend" color="7" fill="1" visible="yes" active="yes"/>
<layer number="150" name="Notes" color="7" fill="1" visible="yes" active="yes"/>
<layer number="151" name="HeatSink" color="7" fill="1" visible="yes" active="yes"/>
<layer number="152" name="_bDocu" color="7" fill="1" visible="no" active="no"/>
<layer number="153" name="FabDoc1" color="6" fill="1" visible="no" active="no"/>
<layer number="154" name="FabDoc2" color="2" fill="1" visible="no" active="no"/>
<layer number="155" name="FabDoc3" color="7" fill="15" visible="no" active="no"/>
<layer number="199" name="Contour" color="7" fill="1" visible="no" active="no"/>
<layer number="200" name="200bmp" color="1" fill="10" visible="yes" active="yes"/>
<layer number="201" name="201bmp" color="2" fill="10" visible="yes" active="yes"/>
<layer number="202" name="202bmp" color="7" fill="1" visible="yes" active="yes"/>
<layer number="203" name="203bmp" color="7" fill="1" visible="yes" active="yes"/>
<layer number="204" name="204bmp" color="7" fill="1" visible="yes" active="yes"/>
<layer number="205" name="205bmp" color="7" fill="1" visible="yes" active="yes"/>
<layer number="206" name="206bmp" color="7" fill="1" visible="yes" active="yes"/>
<layer number="207" name="207bmp" color="7" fill="1" visible="yes" active="yes"/>
<layer number="208" name="208bmp" color="7" fill="1" visible="yes" active="yes"/>
<layer number="209" name="209bmp" color="7" fill="1" visible="yes" active="yes"/>
<layer number="210" name="210bmp" color="7" fill="1" visible="yes" active="yes"/>
<layer number="211" name="211bmp" color="7" fill="1" visible="yes" active="yes"/>
<layer number="212" name="212bmp" color="7" fill="1" visible="yes" active="yes"/>
<layer number="213" name="213bmp" color="7" fill="1" visible="yes" active="yes"/>
<layer number="214" name="214bmp" color="7" fill="1" visible="yes" active="yes"/>
<layer number="215" name="215bmp" color="7" fill="1" visible="yes" active="yes"/>
<layer number="216" name="216bmp" color="7" fill="1" visible="yes" active="yes"/>
<layer number="217" name="217bmp" color="7" fill="1" visible="yes" active="yes"/>
<layer number="218" name="218bmp" color="7" fill="1" visible="yes" active="yes"/>
<layer number="219" name="219bmp" color="7" fill="1" visible="yes" active="yes"/>
<layer number="220" name="220bmp" color="7" fill="1" visible="yes" active="yes"/>
<layer number="221" name="221bmp" color="7" fill="1" visible="yes" active="yes"/>
<layer number="222" name="222bmp" color="7" fill="1" visible="yes" active="yes"/>
<layer number="223" name="223bmp" color="7" fill="1" visible="yes" active="yes"/>
<layer number="224" name="224bmp" color="7" fill="1" visible="yes" active="yes"/>
<layer number="248" name="Housing" color="7" fill="1" visible="no" active="no"/>
<layer number="249" name="Edge" color="7" fill="1" visible="no" active="no"/>
<layer number="250" name="Descript" color="7" fill="1" visible="yes" active="yes"/>
<layer number="251" name="SMDround" color="7" fill="1" visible="yes" active="yes"/>
<layer number="254" name="cooling" color="7" fill="1" visible="yes" active="yes"/>
</layers>
<board>
<plain>
<wire x1="0" y1="0" x2="37.77" y2="0" width="0" layer="20"/>
<wire x1="37.77" y1="0" x2="37.77" y2="48.25" width="0" layer="20"/>
<wire x1="37.77" y1="48.25" x2="0" y2="48.25" width="0" layer="20"/>
<wire x1="0" y1="48.25" x2="0" y2="0" width="0" layer="20"/>
<text x="32.385" y="43.815" size="0.8128" layer="25" font="vector">SIGNAL</text>
<text x="32.385" y="41.275" size="0.8128" layer="25" font="vector">FLLBCK</text>
<text x="25.4" y="3.81" size="0.8128" layer="26" font="vector" rot="MR90">The signal row are the pins that would accept input
from an inserted jack. The fallback row pins provide
input to the signal row if there is no jack plugged in.</text>
<text x="36.195" y="43.815" size="0.8128" layer="26" font="vector" rot="MR0">SIGNAL</text>
<text x="36.83" y="41.275" size="0.8128" layer="26" font="vector" rot="MR0">FLLBCK</text>
<text x="31.115" y="45.72" size="1.4224" layer="26" font="vector" rot="MR0">3 6 9 5 2 G 8 4 1 7</text>
<text x="13.97" y="29.21" size="1.4224" layer="26" font="vector" rot="MR270">Jack board v1.0
https://tiwtie.xyz/uglue</text>
</plain>
<libraries>
<library name="thonkiconn">
<packages>
<package name="WQP-PJ301M-12_JACK_BENT">
<wire x1="-4.5" y1="6" x2="-1.5" y2="6" width="0.127" layer="21"/>
<wire x1="-1.5" y1="6" x2="1.5" y2="6" width="0.127" layer="21"/>
<wire x1="1.5" y1="6" x2="4.5" y2="6" width="0.127" layer="21"/>
<wire x1="-4.5" y1="6" x2="-4.5" y2="-4.5" width="0.127" layer="21"/>
<wire x1="-4.5" y1="-4.5" x2="0.2" y2="-4.5" width="0.127" layer="21"/>
<wire x1="0.2" y1="-4.5" x2="4.5" y2="-4.5" width="0.127" layer="21"/>
<wire x1="4.5" y1="-4.5" x2="4.5" y2="6" width="0.127" layer="21"/>
<circle x="0" y="0" radius="3.162275" width="0.127" layer="21"/>
<wire x1="-1.5" y1="6" x2="-1.5" y2="4" width="0.127" layer="21"/>
<wire x1="-1.5" y1="4" x2="1.5" y2="4" width="0.127" layer="21"/>
<wire x1="1.5" y1="4" x2="1.5" y2="6" width="0.127" layer="21"/>
<pad name="P$1" x="0" y="5" drill="1.1" thermals="no"/>
<pad name="P$2" x="0" y="-3.5" drill="1.1"/>
<pad name="P$3" x="0" y="-5.5475" drill="1.1"/>
<circle x="0" y="0" radius="2.690721875" width="0.127" layer="21"/>
<wire x1="-0.2" y1="-4.6" x2="-0.2" y2="-5.43" width="0.127" layer="21"/>
<wire x1="-0.2" y1="-5.43" x2="0.2" y2="-5.43" width="0.127" layer="21"/>
<wire x1="0.2" y1="-5.43" x2="0.2" y2="-4.5" width="0.127" layer="21"/>
<rectangle x1="-2.8" y1="-2.8" x2="2.8" y2="2.8" layer="41"/>
<text x="-4.7498" y="-4.4704" size="1.27" layer="21" rot="R90">&gt;NAME</text>
</package>
</packages>
</library>
<library name="con-lsta">
<description>&lt;b&gt;Female Headers etc.&lt;/b&gt;&lt;p&gt;
Naming:&lt;p&gt;
FE = female&lt;p&gt;
# contacts - # rows&lt;p&gt;
W = angled&lt;p&gt;
&lt;author&gt;Created by librarian@cadsoft.de&lt;/author&gt;</description>
<packages>
<package name="FE10-2">
<description>&lt;b&gt;FEMALE HEADER&lt;/b&gt;</description>
<wire x1="-12.7" y1="-2.413" x2="-12.7" y2="2.413" width="0.1524" layer="21"/>
<wire x1="-12.7" y1="2.413" x2="-12.065" y2="3.048" width="0.1524" layer="21" curve="-90"/>
<wire x1="-12.7" y1="-2.413" x2="-12.065" y2="-3.048" width="0.1524" layer="21" curve="90"/>
<wire x1="-12.065" y1="3.048" x2="12.065" y2="3.048" width="0.1524" layer="21"/>
<wire x1="12.7" y1="-2.413" x2="12.7" y2="2.413" width="0.1524" layer="21"/>
<wire x1="-12.065" y1="-3.048" x2="12.065" y2="-3.048" width="0.1524" layer="21"/>
<wire x1="12.065" y1="3.048" x2="12.7" y2="2.413" width="0.1524" layer="21" curve="-90"/>
<wire x1="12.065" y1="-3.048" x2="12.7" y2="-2.413" width="0.1524" layer="21" curve="90"/>
<circle x="-11.43" y="-1.27" radius="0.127" width="0.4064" layer="51"/>
<circle x="-11.43" y="1.27" radius="0.127" width="0.4064" layer="51"/>
<circle x="-8.89" y="-1.27" radius="0.127" width="0.4064" layer="51"/>
<circle x="-8.89" y="1.27" radius="0.127" width="0.4064" layer="51"/>
<circle x="-6.35" y="-1.27" radius="0.127" width="0.4064" layer="51"/>
<circle x="-6.35" y="1.27" radius="0.127" width="0.4064" layer="51"/>
<circle x="-3.81" y="-1.27" radius="0.127" width="0.4064" layer="51"/>
<circle x="-3.81" y="1.27" radius="0.127" width="0.4064" layer="51"/>
<circle x="-1.27" y="-1.27" radius="0.127" width="0.4064" layer="51"/>
<circle x="-1.27" y="1.27" radius="0.127" width="0.4064" layer="51"/>
<circle x="-11.43" y="-1.27" radius="0.889" width="0.1524" layer="51"/>
<circle x="-11.43" y="1.27" radius="0.889" width="0.1524" layer="51"/>
<circle x="-8.89" y="1.27" radius="0.889" width="0.1524" layer="51"/>
<circle x="-6.35" y="1.27" radius="0.889" width="0.1524" layer="51"/>
<circle x="-3.81" y="1.27" radius="0.889" width="0.1524" layer="51"/>
<circle x="-1.27" y="1.27" radius="0.889" width="0.1524" layer="51"/>
<circle x="-8.89" y="-1.27" radius="0.889" width="0.1524" layer="51"/>
<circle x="-6.35" y="-1.27" radius="0.889" width="0.1524" layer="51"/>
<circle x="-3.81" y="-1.27" radius="0.889" width="0.1524" layer="51"/>
<circle x="-1.27" y="-1.27" radius="0.889" width="0.1524" layer="51"/>
<circle x="1.27" y="-1.27" radius="0.127" width="0.4064" layer="51"/>
<circle x="1.27" y="1.27" radius="0.127" width="0.4064" layer="51"/>
<circle x="3.81" y="-1.27" radius="0.127" width="0.4064" layer="51"/>
<circle x="3.81" y="1.27" radius="0.127" width="0.4064" layer="51"/>
<circle x="6.35" y="-1.27" radius="0.127" width="0.4064" layer="51"/>
<circle x="6.35" y="1.27" radius="0.127" width="0.4064" layer="51"/>
<circle x="8.89" y="-1.27" radius="0.127" width="0.4064" layer="51"/>
<circle x="8.89" y="1.27" radius="0.127" width="0.4064" layer="51"/>
<circle x="11.43" y="-1.27" radius="0.127" width="0.4064" layer="51"/>
<circle x="11.43" y="1.27" radius="0.127" width="0.4064" layer="51"/>
<circle x="1.27" y="-1.27" radius="0.889" width="0.1524" layer="51"/>
<circle x="1.27" y="1.27" radius="0.889" width="0.1524" layer="51"/>
<circle x="3.81" y="1.27" radius="0.889" width="0.1524" layer="51"/>
<circle x="6.35" y="1.27" radius="0.889" width="0.1524" layer="51"/>
<circle x="8.89" y="1.27" radius="0.889" width="0.1524" layer="51"/>
<circle x="11.43" y="1.27" radius="0.889" width="0.1524" layer="51"/>
<circle x="3.81" y="-1.27" radius="0.889" width="0.1524" layer="51"/>
<circle x="6.35" y="-1.27" radius="0.889" width="0.1524" layer="51"/>
<circle x="8.89" y="-1.27" radius="0.889" width="0.1524" layer="51"/>
<circle x="11.43" y="-1.27" radius="0.889" width="0.1524" layer="51"/>
<pad name="1" x="-11.43" y="1.27" drill="0.9144" shape="octagon"/>
<pad name="2" x="-11.43" y="-1.27" drill="0.9144" shape="octagon"/>
<pad name="3" x="-8.89" y="1.27" drill="0.9144" shape="octagon"/>
<pad name="4" x="-8.89" y="-1.27" drill="0.9144" shape="octagon"/>
<pad name="5" x="-6.35" y="1.27" drill="0.9144" shape="octagon"/>
<pad name="6" x="-6.35" y="-1.27" drill="0.9144" shape="octagon"/>
<pad name="7" x="-3.81" y="1.27" drill="0.9144" shape="octagon"/>
<pad name="8" x="-3.81" y="-1.27" drill="0.9144" shape="octagon"/>
<pad name="9" x="-1.27" y="1.27" drill="0.9144" shape="octagon"/>
<pad name="10" x="-1.27" y="-1.27" drill="0.9144" shape="octagon"/>
<pad name="11" x="1.27" y="1.27" drill="0.9144" shape="octagon"/>
<pad name="12" x="1.27" y="-1.27" drill="0.9144" shape="octagon"/>
<pad name="13" x="3.81" y="1.27" drill="0.9144" shape="octagon"/>
<pad name="14" x="3.81" y="-1.27" drill="0.9144" shape="octagon"/>
<pad name="15" x="6.35" y="1.27" drill="0.9144" shape="octagon"/>
<pad name="16" x="6.35" y="-1.27" drill="0.9144" shape="octagon"/>
<pad name="17" x="8.89" y="1.27" drill="0.9144" shape="octagon"/>
<pad name="18" x="8.89" y="-1.27" drill="0.9144" shape="octagon"/>
<pad name="19" x="11.43" y="1.27" drill="0.9144" shape="octagon"/>
<pad name="20" x="11.43" y="-1.27" drill="0.9144" shape="octagon"/>
<text x="-7.62" y="3.429" size="1.27" layer="25" ratio="10">&gt;NAME</text>
<text x="-11.811" y="3.429" size="1.27" layer="21" ratio="10">1</text>
<text x="10.541" y="-4.699" size="1.27" layer="21" ratio="10">20</text>
<text x="-12.7" y="-4.699" size="1.27" layer="27" ratio="10">&gt;VALUE</text>
</package>
</packages>
</library>
</libraries>
<attributes>
</attributes>
<variantdefs>
</variantdefs>
<classes>
<class number="0" name="default" width="0" drill="0">
</class>
</classes>
<designrules name="default">
<description language="de">&lt;b&gt;EAGLE Design Rules&lt;/b&gt;
&lt;p&gt;
Die Standard-Design-Rules sind so gewählt, dass sie für 
die meisten Anwendungen passen. Sollte ihre Platine 
besondere Anforderungen haben, treffen Sie die erforderlichen
Einstellungen hier und speichern die Design Rules unter 
einem neuen Namen ab.</description>
<description language="en">&lt;b&gt;EAGLE Design Rules&lt;/b&gt;
&lt;p&gt;
The default Design Rules have been set to cover
a wide range of applications. Your particular design
may have different requirements, so please make the
necessary adjustments and save your customized
design rules under a new name.</description>
<param name="layerSetup" value="(1*16)"/>
<param name="mtCopper" value="0.035mm 0.035mm 0.035mm 0.035mm 0.035mm 0.035mm 0.035mm 0.035mm 0.035mm 0.035mm 0.035mm 0.035mm 0.035mm 0.035mm 0.035mm 0.035mm"/>
<param name="mtIsolate" value="1.5mm 0.15mm 0.2mm 0.15mm 0.2mm 0.15mm 0.2mm 0.15mm 0.2mm 0.15mm 0.2mm 0.15mm 0.2mm 0.15mm 0.2mm"/>
<param name="mdWireWire" value="8mil"/>
<param name="mdWirePad" value="8mil"/>
<param name="mdWireVia" value="8mil"/>
<param name="mdPadPad" value="8mil"/>
<param name="mdPadVia" value="8mil"/>
<param name="mdViaVia" value="8mil"/>
<param name="mdSmdPad" value="8mil"/>
<param name="mdSmdVia" value="8mil"/>
<param name="mdSmdSmd" value="8mil"/>
<param name="mdViaViaSameLayer" value="8mil"/>
<param name="mnLayersViaInSmd" value="2"/>
<param name="mdCopperDimension" value="40mil"/>
<param name="mdDrill" value="8mil"/>
<param name="mdSmdStop" value="0mil"/>
<param name="msWidth" value="10mil"/>
<param name="msDrill" value="24mil"/>
<param name="msMicroVia" value="9.99mm"/>
<param name="msBlindViaRatio" value="0.5"/>
<param name="rvPadTop" value="0.25"/>
<param name="rvPadInner" value="0.25"/>
<param name="rvPadBottom" value="0.25"/>
<param name="rvViaOuter" value="0.25"/>
<param name="rvViaInner" value="0.25"/>
<param name="rvMicroViaOuter" value="0.25"/>
<param name="rvMicroViaInner" value="0.25"/>
<param name="rlMinPadTop" value="10mil"/>
<param name="rlMaxPadTop" value="20mil"/>
<param name="rlMinPadInner" value="10mil"/>
<param name="rlMaxPadInner" value="20mil"/>
<param name="rlMinPadBottom" value="10mil"/>
<param name="rlMaxPadBottom" value="20mil"/>
<param name="rlMinViaOuter" value="8mil"/>
<param name="rlMaxViaOuter" value="20mil"/>
<param name="rlMinViaInner" value="8mil"/>
<param name="rlMaxViaInner" value="20mil"/>
<param name="rlMinMicroViaOuter" value="4mil"/>
<param name="rlMaxMicroViaOuter" value="20mil"/>
<param name="rlMinMicroViaInner" value="4mil"/>
<param name="rlMaxMicroViaInner" value="20mil"/>
<param name="psTop" value="-1"/>
<param name="psBottom" value="-1"/>
<param name="psFirst" value="-1"/>
<param name="psElongationLong" value="100"/>
<param name="psElongationOffset" value="100"/>
<param name="mvStopFrame" value="1"/>
<param name="mvCreamFrame" value="0"/>
<param name="mlMinStopFrame" value="4mil"/>
<param name="mlMaxStopFrame" value="4mil"/>
<param name="mlMinCreamFrame" value="0mil"/>
<param name="mlMaxCreamFrame" value="0mil"/>
<param name="mlViaStopLimit" value="0mil"/>
<param name="srRoundness" value="0"/>
<param name="srMinRoundness" value="0mil"/>
<param name="srMaxRoundness" value="0mil"/>
<param name="slThermalIsolate" value="10mil"/>
<param name="slThermalsForVias" value="0"/>
<param name="dpMaxLengthDifference" value="10mm"/>
<param name="dpGapFactor" value="2.5"/>
<param name="checkGrid" value="0"/>
<param name="checkAngle" value="0"/>
<param name="checkFont" value="1"/>
<param name="checkRestrict" value="1"/>
<param name="useDiameter" value="13"/>
<param name="maxErrors" value="50"/>
</designrules>
<autorouter>
<pass name="Default">
<param name="RoutingGrid" value="0.25mm"/>
<param name="AutoGrid" value="1"/>
<param name="Efforts" value="2"/>
<param name="TopRouterVariant" value="1"/>
<param name="tpViaShape" value="round"/>
<param name="PrefDir.1" value="|"/>
<param name="PrefDir.2" value="0"/>
<param name="PrefDir.3" value="0"/>
<param name="PrefDir.4" value="0"/>
<param name="PrefDir.5" value="0"/>
<param name="PrefDir.6" value="0"/>
<param name="PrefDir.7" value="0"/>
<param name="PrefDir.8" value="0"/>
<param name="PrefDir.9" value="0"/>
<param name="PrefDir.10" value="0"/>
<param name="PrefDir.11" value="0"/>
<param name="PrefDir.12" value="0"/>
<param name="PrefDir.13" value="0"/>
<param name="PrefDir.14" value="0"/>
<param name="PrefDir.15" value="0"/>
<param name="PrefDir.16" value="-"/>
<param name="cfVia" value="8"/>
<param name="cfNonPref" value="5"/>
<param name="cfChangeDir" value="2"/>
<param name="cfOrthStep" value="2"/>
<param name="cfDiagStep" value="3"/>
<param name="cfExtdStep" value="0"/>
<param name="cfBonusStep" value="1"/>
<param name="cfMalusStep" value="1"/>
<param name="cfPadImpact" value="4"/>
<param name="cfSmdImpact" value="4"/>
<param name="cfBusImpact" value="0"/>
<param name="cfHugging" value="3"/>
<param name="cfAvoid" value="4"/>
<param name="cfPolygon" value="10"/>
<param name="cfBase.1" value="0"/>
<param name="cfBase.2" value="1"/>
<param name="cfBase.3" value="1"/>
<param name="cfBase.4" value="1"/>
<param name="cfBase.5" value="1"/>
<param name="cfBase.6" value="1"/>
<param name="cfBase.7" value="1"/>
<param name="cfBase.8" value="1"/>
<param name="cfBase.9" value="1"/>
<param name="cfBase.10" value="1"/>
<param name="cfBase.11" value="1"/>
<param name="cfBase.12" value="1"/>
<param name="cfBase.13" value="1"/>
<param name="cfBase.14" value="1"/>
<param name="cfBase.15" value="1"/>
<param name="cfBase.16" value="0"/>
<param name="mnVias" value="20"/>
<param name="mnSegments" value="9999"/>
<param name="mnExtdSteps" value="9999"/>
<param name="mnRipupLevel" value="10"/>
<param name="mnRipupSteps" value="100"/>
<param name="mnRipupTotal" value="100"/>
</pass>
<pass name="Follow-me" refer="Default" active="yes">
</pass>
<pass name="Busses" refer="Default" active="yes">
<param name="cfNonPref" value="4"/>
<param name="cfBusImpact" value="4"/>
<param name="cfHugging" value="0"/>
<param name="mnVias" value="0"/>
</pass>
<pass name="Route" refer="Default" active="yes">
</pass>
<pass name="Optimize1" refer="Default" active="yes">
<param name="cfVia" value="99"/>
<param name="cfExtdStep" value="10"/>
<param name="cfHugging" value="1"/>
<param name="mnExtdSteps" value="1"/>
<param name="mnRipupLevel" value="0"/>
</pass>
<pass name="Optimize2" refer="Optimize1" active="yes">
<param name="cfNonPref" value="0"/>
<param name="cfChangeDir" value="6"/>
<param name="cfExtdStep" value="0"/>
<param name="cfBonusStep" value="2"/>
<param name="cfMalusStep" value="2"/>
<param name="cfPadImpact" value="2"/>
<param name="cfSmdImpact" value="2"/>
<param name="cfHugging" value="0"/>
</pass>
<pass name="Optimize3" refer="Optimize2" active="yes">
<param name="cfChangeDir" value="8"/>
<param name="cfPadImpact" value="0"/>
<param name="cfSmdImpact" value="0"/>
</pass>
<pass name="Optimize4" refer="Optimize3" active="yes">
<param name="cfChangeDir" value="25"/>
</pass>
</autorouter>
<elements>
<element name="U$1" library="thonkiconn" package="WQP-PJ301M-12_JACK_BENT" value="WQP-PJ301M-12_JACKBENT" x="6.35" y="33.02" rot="R180"/>
<element name="U$2" library="thonkiconn" package="WQP-PJ301M-12_JACK_BENT" value="WQP-PJ301M-12_JACKBENT" x="19.05" y="33.02" rot="R180"/>
<element name="U$3" library="thonkiconn" package="WQP-PJ301M-12_JACK_BENT" value="WQP-PJ301M-12_JACKBENT" x="31.75" y="33.02" rot="R180"/>
<element name="U$4" library="thonkiconn" package="WQP-PJ301M-12_JACK_BENT" value="WQP-PJ301M-12_JACKBENT" x="6.35" y="20.32" rot="R180"/>
<element name="U$5" library="thonkiconn" package="WQP-PJ301M-12_JACK_BENT" value="WQP-PJ301M-12_JACKBENT" x="19.05" y="20.32" rot="R180"/>
<element name="U$6" library="thonkiconn" package="WQP-PJ301M-12_JACK_BENT" value="WQP-PJ301M-12_JACKBENT" x="31.75" y="20.32" rot="R180"/>
<element name="U$7" library="thonkiconn" package="WQP-PJ301M-12_JACK_BENT" value="WQP-PJ301M-12_JACKBENT" x="6.35" y="7.62" rot="R180"/>
<element name="U$8" library="thonkiconn" package="WQP-PJ301M-12_JACK_BENT" value="WQP-PJ301M-12_JACKBENT" x="19.05" y="7.62" rot="R180"/>
<element name="U$9" library="thonkiconn" package="WQP-PJ301M-12_JACK_BENT" value="WQP-PJ301M-12_JACKBENT" x="31.75" y="7.62" rot="R180"/>
<element name="SV1" library="con-lsta" package="FE10-2" value="" x="19.05" y="43.18" smashed="yes">
<attribute name="OC_FARNELL" value="unknown" x="19.05" y="43.18" size="1.778" layer="27" display="off"/>
<attribute name="MPN" value="" x="19.05" y="43.18" size="1.778" layer="27" display="off"/>
<attribute name="OC_NEWARK" value="unknown" x="19.05" y="43.18" size="1.778" layer="27" display="off"/>
<attribute name="MF" value="" x="19.05" y="43.18" size="1.778" layer="27" display="off"/>
<attribute name="NAME" x="5.461" y="41.91" size="1.27" layer="25" ratio="10" rot="R90"/>
<attribute name="VALUE" x="6.35" y="38.481" size="1.27" layer="27" ratio="10"/>
</element>
</elements>
<signals>
<signal name="GND">
<contactref element="U$7" pad="P$3"/>
<contactref element="U$4" pad="P$3"/>
<contactref element="U$1" pad="P$3"/>
<contactref element="U$8" pad="P$3"/>
<contactref element="U$2" pad="P$3"/>
<contactref element="U$5" pad="P$3"/>
<contactref element="U$9" pad="P$3"/>
<contactref element="U$6" pad="P$3"/>
<contactref element="U$3" pad="P$3"/>
<polygon width="0.4064" layer="16">
<vertex x="1.27" y="46.99"/>
<vertex x="36.83" y="46.99"/>
<vertex x="36.83" y="0"/>
<vertex x="1.27" y="0"/>
</polygon>
<contactref element="SV1" pad="9"/>
<contactref element="SV1" pad="10"/>
</signal>
<signal name="SIG_1">
<contactref element="U$1" pad="P$1"/>
<contactref element="SV1" pad="3"/>
<wire x1="10.287" y1="43.3324" x2="10.287" y2="44.2468" width="0.254" layer="1"/>
<wire x1="11.2014" y1="42.418" x2="10.287" y2="43.3324" width="0.254" layer="1"/>
<wire x1="6.4008" y1="28.2448" x2="8.73550625" y2="28.2448" width="0.254" layer="1"/>
<wire x1="8.73550625" y1="28.2448" x2="11.2014" y2="30.71069375" width="0.254" layer="1"/>
<wire x1="11.2014" y1="30.71069375" x2="11.2014" y2="42.418" width="0.254" layer="1"/>
<wire x1="10.287" y1="44.2468" x2="10.16" y2="44.45" width="0.254" layer="1"/>
<wire x1="6.4008" y1="28.2448" x2="6.35" y2="28.02" width="0.254" layer="1"/>
</signal>
<signal name="RET_1">
<contactref element="U$1" pad="P$2"/>
<contactref element="SV1" pad="4"/>
<wire x1="10.0584" y1="40.3606" x2="10.0584" y2="41.7322" width="0.254" layer="1"/>
<wire x1="6.4008" y1="36.703" x2="10.0584" y2="40.3606" width="0.254" layer="1"/>
<wire x1="10.0584" y1="41.7322" x2="10.16" y2="41.91" width="0.254" layer="1"/>
<wire x1="6.4008" y1="36.703" x2="6.35" y2="36.52" width="0.254" layer="1"/>
</signal>
<signal name="SIG_2">
<contactref element="U$2" pad="P$1"/>
<contactref element="SV1" pad="11"/>
<wire x1="20.32" y1="44.45" x2="19.05" y2="43.18" width="0.254" layer="1"/>
<wire x1="19.05" y1="43.18" x2="19.05" y2="40.64" width="0.254" layer="1"/>
<wire x1="19.05" y1="40.64" x2="18.415" y2="40.005" width="0.254" layer="1"/>
<wire x1="18.415" y1="40.005" x2="15.875" y2="37.465" width="0.254" layer="1"/>
<wire x1="15.875" y1="37.465" x2="15.875" y2="29.359903125" width="0.254" layer="1"/>
<wire x1="15.875" y1="29.359903125" x2="17.294903125" y2="27.94" width="0.254" layer="1"/>
<wire x1="17.294903125" y1="27.94" x2="18.97" y2="27.94" width="0.254" layer="1"/>
<wire x1="18.97" y1="27.94" x2="19.05" y2="28.02" width="0.254" layer="1"/>
</signal>
<signal name="RET_2">
<contactref element="U$2" pad="P$2"/>
<contactref element="SV1" pad="12"/>
<wire x1="20.3454" y1="37.846" x2="20.3454" y2="41.7322" width="0.254" layer="1"/>
<wire x1="19.2024" y1="36.703" x2="20.3454" y2="37.846" width="0.254" layer="1"/>
<wire x1="20.3454" y1="41.7322" x2="20.32" y2="41.91" width="0.254" layer="1"/>
<wire x1="19.2024" y1="36.703" x2="19.05" y2="36.52" width="0.254" layer="1"/>
</signal>
<signal name="SIG_3">
<contactref element="U$3" pad="P$1"/>
<contactref element="SV1" pad="19"/>
<wire x1="30.48" y1="44.45" x2="32.385" y2="44.45" width="0.254" layer="1"/>
<wire x1="32.385" y1="44.45" x2="34.925" y2="41.91" width="0.254" layer="1"/>
<wire x1="34.925" y1="41.91" x2="34.925" y2="29.21" width="0.254" layer="1"/>
<wire x1="34.925" y1="29.21" x2="33.655" y2="27.94" width="0.254" layer="1"/>
<wire x1="33.655" y1="27.94" x2="31.83" y2="27.94" width="0.254" layer="1"/>
<wire x1="31.83" y1="27.94" x2="31.75" y2="28.02" width="0.254" layer="1"/>
</signal>
<signal name="RET_3">
<contactref element="U$3" pad="P$2"/>
<contactref element="SV1" pad="20"/>
<wire x1="30.48" y1="41.91" x2="31.75" y2="41.91" width="0.254" layer="1"/>
<wire x1="31.75" y1="41.91" x2="33.02" y2="40.64" width="0.254" layer="1"/>
<wire x1="33.02" y1="40.64" x2="33.02" y2="37.79" width="0.254" layer="1"/>
<wire x1="33.02" y1="37.79" x2="31.75" y2="36.52" width="0.254" layer="1"/>
</signal>
<signal name="SIG_4">
<contactref element="U$4" pad="P$1"/>
<contactref element="SV1" pad="5"/>
<wire x1="12.8016" y1="43.3324" x2="12.8016" y2="44.2468" width="0.254" layer="1"/>
<wire x1="13.9446" y1="42.1894" x2="12.8016" y2="43.3324" width="0.254" layer="1"/>
<wire x1="12.8016" y1="44.2468" x2="12.7" y2="44.45" width="0.254" layer="1"/>
<wire x1="13.9446" y1="42.1894" x2="13.9446" y2="40.6146" width="0.254" layer="1"/>
<wire x1="13.9446" y1="40.6146" x2="13.335" y2="40.005" width="0.254" layer="1"/>
<wire x1="13.335" y1="40.005" x2="13.335" y2="28.575" width="0.254" layer="1"/>
<wire x1="6.43" y1="15.24" x2="6.35" y2="15.32" width="0.254" layer="1"/>
<wire x1="13.335" y1="28.575" x2="12.7" y2="27.94" width="0.254" layer="1"/>
<wire x1="12.7" y1="27.94" x2="12.7" y2="15.875" width="0.254" layer="1"/>
<wire x1="12.7" y1="15.875" x2="12.065" y2="15.24" width="0.254" layer="1"/>
<wire x1="12.065" y1="15.24" x2="6.43" y2="15.24" width="0.254" layer="1"/>
</signal>
<signal name="RET_4">
<contactref element="U$4" pad="P$2"/>
<contactref element="SV1" pad="6"/>
<wire x1="12.573" y1="30.0736" x2="12.573" y2="41.7322" width="0.254" layer="1"/>
<wire x1="6.4008" y1="23.9014" x2="12.573" y2="30.0736" width="0.254" layer="1"/>
<wire x1="12.573" y1="41.7322" x2="12.7" y2="41.91" width="0.254" layer="1"/>
<wire x1="6.4008" y1="23.9014" x2="6.35" y2="23.82" width="0.254" layer="1"/>
</signal>
<signal name="SIG_7">
<contactref element="U$7" pad="P$1"/>
<contactref element="SV1" pad="1"/>
<wire x1="7.5438" y1="43.3324" x2="7.5438" y2="44.2468" width="0.254" layer="1"/>
<wire x1="2.7432" y1="38.5318" x2="7.5438" y2="43.3324" width="0.254" layer="1"/>
<wire x1="6.1722" y1="2.6416" x2="3.814825" y2="2.6416" width="0.254" layer="1"/>
<wire x1="3.814825" y1="2.6416" x2="2.7432" y2="3.713225" width="0.254" layer="1"/>
<wire x1="2.7432" y1="3.713225" x2="2.7432" y2="38.5318" width="0.254" layer="1"/>
<wire x1="7.5438" y1="44.2468" x2="7.62" y2="44.45" width="0.254" layer="1"/>
<wire x1="6.1722" y1="2.6416" x2="6.35" y2="2.62" width="0.254" layer="1"/>
</signal>
<signal name="RET_7">
<contactref element="U$7" pad="P$2"/>
<contactref element="SV1" pad="2"/>
<wire x1="3.2004" y1="37.3888" x2="7.5438" y2="41.7322" width="0.254" layer="1"/>
<wire x1="3.2004" y1="12.0396" x2="3.2004" y2="37.3888" width="0.254" layer="1"/>
<wire x1="7.5438" y1="41.7322" x2="7.62" y2="41.91" width="0.254" layer="1"/>
<wire x1="6.1722" y1="11.3284" x2="6.35" y2="11.12" width="0.254" layer="1"/>
<wire x1="3.2004" y1="12.0396" x2="3.81" y2="11.43" width="0.254" layer="1"/>
<wire x1="3.81" y1="11.43" x2="6.04" y2="11.43" width="0.254" layer="1"/>
<wire x1="6.04" y1="11.43" x2="6.35" y2="11.12" width="0.254" layer="1"/>
</signal>
<signal name="SIG_5">
<contactref element="U$5" pad="P$1"/>
<contactref element="SV1" pad="13"/>
<wire x1="22.86" y1="44.45" x2="24.13" y2="43.18" width="0.254" layer="1"/>
<wire x1="22.86" y1="15.24" x2="19.13" y2="15.24" width="0.254" layer="1"/>
<wire x1="19.13" y1="15.24" x2="19.05" y2="15.32" width="0.254" layer="1"/>
<wire x1="24.13" y1="43.18" x2="24.13" y2="40.64" width="0.254" layer="1"/>
<wire x1="24.13" y1="40.64" x2="23.495" y2="40.005" width="0.254" layer="1"/>
<wire x1="23.495" y1="40.005" x2="23.495" y2="15.875" width="0.254" layer="1"/>
<wire x1="23.495" y1="15.875" x2="22.86" y2="15.24" width="0.254" layer="1"/>
</signal>
<signal name="RET_5">
<contactref element="U$5" pad="P$2"/>
<contactref element="SV1" pad="14"/>
<wire x1="22.86" y1="41.91" x2="22.86" y2="24.765" width="0.254" layer="1"/>
<wire x1="22.86" y1="24.765" x2="22.225" y2="24.13" width="0.254" layer="1"/>
<wire x1="22.225" y1="24.13" x2="19.36" y2="24.13" width="0.254" layer="1"/>
<wire x1="19.36" y1="24.13" x2="19.05" y2="23.82" width="0.254" layer="1"/>
</signal>
<signal name="SIG_8">
<contactref element="U$8" pad="P$1"/>
<contactref element="SV1" pad="7"/>
<wire x1="15.24" y1="44.45" x2="13.97" y2="43.18" width="0.254" layer="16"/>
<wire x1="13.97" y1="43.18" x2="13.97" y2="26.67" width="0.254" layer="16"/>
<via x="13.97" y="26.67" extent="1-16" drill="0.6"/>
<wire x1="13.97" y1="26.67" x2="13.97" y2="4.33605" width="0.254" layer="1"/>
<wire x1="13.97" y1="4.33605" x2="15.76605" y2="2.54" width="0.254" layer="1"/>
<wire x1="15.76605" y1="2.54" x2="18.97" y2="2.54" width="0.254" layer="1"/>
<wire x1="18.97" y1="2.54" x2="19.05" y2="2.62" width="0.254" layer="1"/>
</signal>
<signal name="RET_8">
<contactref element="U$8" pad="P$2"/>
<contactref element="SV1" pad="8"/>
<wire x1="15.3162" y1="12.6238" x2="15.3162" y2="41.7322" width="0.254" layer="1"/>
<wire x1="15.3162" y1="41.7322" x2="15.24" y2="41.91" width="0.254" layer="1"/>
<wire x1="18.9738" y1="11.3284" x2="19.05" y2="11.12" width="0.254" layer="1"/>
<wire x1="15.3162" y1="12.6238" x2="16.51" y2="11.43" width="0.254" layer="1"/>
<wire x1="16.51" y1="11.43" x2="18.74" y2="11.43" width="0.254" layer="1"/>
<wire x1="18.74" y1="11.43" x2="19.05" y2="11.12" width="0.254" layer="1"/>
</signal>
<signal name="SIG_6">
<contactref element="U$6" pad="P$1"/>
<contactref element="SV1" pad="17"/>
<wire x1="27.8892" y1="43.3324" x2="27.8892" y2="44.2468" width="0.254" layer="1"/>
<wire x1="26.7462" y1="42.1894" x2="27.8892" y2="43.3324" width="0.254" layer="1"/>
<wire x1="26.7462" y1="15.7988" x2="26.7462" y2="42.1894" width="0.254" layer="1"/>
<wire x1="27.8892" y1="44.2468" x2="27.94" y2="44.45" width="0.254" layer="1"/>
<wire x1="26.7462" y1="15.7988" x2="27.305" y2="15.24" width="0.254" layer="1"/>
<wire x1="27.305" y1="15.24" x2="31.67" y2="15.24" width="0.254" layer="1"/>
<wire x1="31.67" y1="15.24" x2="31.75" y2="15.32" width="0.254" layer="1"/>
</signal>
<signal name="RET_6">
<contactref element="U$6" pad="P$2"/>
<contactref element="SV1" pad="18"/>
<wire x1="28.1178" y1="23.9522" x2="28.1178" y2="41.7322" width="0.254" layer="1"/>
<wire x1="28.1178" y1="41.7322" x2="27.94" y2="41.91" width="0.254" layer="1"/>
<wire x1="28.1178" y1="23.9522" x2="28.575" y2="23.495" width="0.254" layer="1"/>
<wire x1="28.575" y1="23.495" x2="31.425" y2="23.495" width="0.254" layer="1"/>
<wire x1="31.425" y1="23.495" x2="31.75" y2="23.82" width="0.254" layer="1"/>
</signal>
<signal name="SIG_9">
<contactref element="U$9" pad="P$1"/>
<contactref element="SV1" pad="15"/>
<wire x1="25.4" y1="44.45" x2="24.13" y2="43.18" width="0.254" layer="16"/>
<wire x1="24.13" y1="43.18" x2="24.13" y2="40.64" width="0.254" layer="16"/>
<wire x1="24.13" y1="40.64" x2="24.765" y2="40.005" width="0.254" layer="16"/>
<via x="24.765" y="40.005" extent="1-16" drill="0.6"/>
<wire x1="24.765" y1="40.005" x2="24.765" y2="4.445" width="0.254" layer="1"/>
<wire x1="24.765" y1="4.445" x2="26.67" y2="2.54" width="0.254" layer="1"/>
<wire x1="26.67" y1="2.54" x2="31.67" y2="2.54" width="0.254" layer="1"/>
<wire x1="31.67" y1="2.54" x2="31.75" y2="2.62" width="0.254" layer="1"/>
</signal>
<signal name="RET_9">
<contactref element="U$9" pad="P$2"/>
<contactref element="SV1" pad="16"/>
<wire x1="25.6032" y1="11.2268" x2="25.6032" y2="41.7322" width="0.254" layer="1"/>
<wire x1="25.6032" y1="41.7322" x2="25.4" y2="41.91" width="0.254" layer="1"/>
<wire x1="31.5468" y1="11.3284" x2="31.75" y2="11.12" width="0.254" layer="1"/>
<wire x1="25.6032" y1="11.2268" x2="26.035" y2="10.795" width="0.254" layer="1"/>
<wire x1="26.035" y1="10.795" x2="31.425" y2="10.795" width="0.254" layer="1"/>
<wire x1="31.425" y1="10.795" x2="31.75" y2="11.12" width="0.254" layer="1"/>
</signal>
</signals>
<errors>
<approved hash="4,1,4f5221e17d972bf9"/>
</errors>
</board>
</drawing>
<compatibility>
<note version="6.3" minversion="6.2.2" severity="warning">
Since Version 6.2.2 text objects can contain more than one line,
which will not be processed correctly with this version.
</note>
</compatibility>
</eagle>
