<?xml version="1.0" encoding="utf-8"?>
<!DOCTYPE eagle SYSTEM "eagle.dtd">
<eagle version="7.7.0">
<drawing>
<settings>
<setting alwaysvectorfont="no"/>
<setting verticaltext="up"/>
</settings>
<grid distance="0.1" unitdist="inch" unit="inch" style="lines" multiple="1" display="no" altdistance="0.01" altunitdist="inch" altunit="inch"/>
<layers>
<layer number="1" name="Top" color="4" fill="1" visible="no" active="no"/>
<layer number="16" name="Bottom" color="1" fill="1" visible="no" active="no"/>
<layer number="17" name="Pads" color="2" fill="1" visible="no" active="no"/>
<layer number="18" name="Vias" color="2" fill="1" visible="no" active="no"/>
<layer number="19" name="Unrouted" color="6" fill="1" visible="no" active="no"/>
<layer number="20" name="Dimension" color="15" fill="1" visible="no" active="no"/>
<layer number="21" name="tPlace" color="7" fill="1" visible="no" active="no"/>
<layer number="22" name="bPlace" color="7" fill="1" visible="no" active="no"/>
<layer number="23" name="tOrigins" color="15" fill="1" visible="no" active="no"/>
<layer number="24" name="bOrigins" color="15" fill="1" visible="no" active="no"/>
<layer number="25" name="tNames" color="7" fill="1" visible="no" active="no"/>
<layer number="26" name="bNames" color="7" fill="1" visible="no" active="no"/>
<layer number="27" name="tValues" color="7" fill="1" visible="no" active="no"/>
<layer number="28" name="bValues" color="7" fill="1" visible="no" active="no"/>
<layer number="29" name="tStop" color="7" fill="3" visible="no" active="no"/>
<layer number="30" name="bStop" color="7" fill="6" visible="no" active="no"/>
<layer number="31" name="tCream" color="7" fill="4" visible="no" active="no"/>
<layer number="32" name="bCream" color="7" fill="5" visible="no" active="no"/>
<layer number="33" name="tFinish" color="6" fill="3" visible="no" active="no"/>
<layer number="34" name="bFinish" color="6" fill="6" visible="no" active="no"/>
<layer number="35" name="tGlue" color="7" fill="4" visible="no" active="no"/>
<layer number="36" name="bGlue" color="7" fill="5" visible="no" active="no"/>
<layer number="37" name="tTest" color="7" fill="1" visible="no" active="no"/>
<layer number="38" name="bTest" color="7" fill="1" visible="no" active="no"/>
<layer number="39" name="tKeepout" color="4" fill="11" visible="no" active="no"/>
<layer number="40" name="bKeepout" color="1" fill="11" visible="no" active="no"/>
<layer number="41" name="tRestrict" color="4" fill="10" visible="no" active="no"/>
<layer number="42" name="bRestrict" color="1" fill="10" visible="no" active="no"/>
<layer number="43" name="vRestrict" color="2" fill="10" visible="no" active="no"/>
<layer number="44" name="Drills" color="7" fill="1" visible="no" active="no"/>
<layer number="45" name="Holes" color="7" fill="1" visible="no" active="no"/>
<layer number="46" name="Milling" color="3" fill="1" visible="no" active="no"/>
<layer number="47" name="Measures" color="7" fill="1" visible="no" active="no"/>
<layer number="48" name="Document" color="7" fill="1" visible="no" active="no"/>
<layer number="49" name="Reference" color="7" fill="1" visible="no" active="no"/>
<layer number="50" name="dxf" color="7" fill="1" visible="no" active="no"/>
<layer number="51" name="tDocu" color="7" fill="1" visible="no" active="no"/>
<layer number="52" name="bDocu" color="7" fill="1" visible="no" active="no"/>
<layer number="53" name="tGND_GNDA" color="7" fill="1" visible="no" active="no"/>
<layer number="54" name="bGND_GNDA" color="7" fill="1" visible="no" active="no"/>
<layer number="56" name="wert" color="7" fill="1" visible="no" active="no"/>
<layer number="57" name="tCAD" color="7" fill="1" visible="no" active="no"/>
<layer number="90" name="Modules" color="5" fill="1" visible="yes" active="yes"/>
<layer number="91" name="Nets" color="2" fill="1" visible="yes" active="yes"/>
<layer number="92" name="Busses" color="1" fill="1" visible="yes" active="yes"/>
<layer number="93" name="Pins" color="2" fill="1" visible="no" active="yes"/>
<layer number="94" name="Symbols" color="4" fill="1" visible="yes" active="yes"/>
<layer number="95" name="Names" color="7" fill="1" visible="yes" active="yes"/>
<layer number="96" name="Values" color="7" fill="1" visible="yes" active="yes"/>
<layer number="97" name="Info" color="7" fill="1" visible="yes" active="yes"/>
<layer number="98" name="Guide" color="6" fill="1" visible="yes" active="yes"/>
<layer number="100" name="Muster" color="7" fill="1" visible="yes" active="yes"/>
<layer number="101" name="Patch_Top" color="7" fill="1" visible="yes" active="yes"/>
<layer number="102" name="Vscore" color="7" fill="1" visible="yes" active="yes"/>
<layer number="103" name="tMap" color="7" fill="1" visible="yes" active="yes"/>
<layer number="104" name="Name" color="7" fill="1" visible="yes" active="yes"/>
<layer number="105" name="tPlate" color="7" fill="1" visible="yes" active="yes"/>
<layer number="106" name="bPlate" color="7" fill="1" visible="yes" active="yes"/>
<layer number="107" name="Crop" color="7" fill="1" visible="yes" active="yes"/>
<layer number="108" name="centerline" color="7" fill="1" visible="yes" active="yes"/>
<layer number="109" name="fp9" color="7" fill="1" visible="no" active="no"/>
<layer number="110" name="110" color="7" fill="1" visible="no" active="no"/>
<layer number="111" name="111" color="7" fill="1" visible="no" active="no"/>
<layer number="112" name="tSilk" color="7" fill="1" visible="no" active="no"/>
<layer number="116" name="Patch_BOT" color="7" fill="1" visible="yes" active="yes"/>
<layer number="118" name="Rect_Pads" color="7" fill="1" visible="no" active="no"/>
<layer number="121" name="_tsilk" color="7" fill="1" visible="yes" active="yes"/>
<layer number="122" name="_bsilk" color="7" fill="1" visible="yes" active="yes"/>
<layer number="123" name="tTestmark" color="7" fill="1" visible="no" active="no"/>
<layer number="124" name="bTestmark" color="7" fill="1" visible="no" active="no"/>
<layer number="125" name="_tNames" color="7" fill="1" visible="yes" active="yes"/>
<layer number="126" name="_bNames" color="7" fill="1" visible="no" active="no"/>
<layer number="127" name="_tValues" color="7" fill="1" visible="no" active="no"/>
<layer number="128" name="_bValues" color="7" fill="1" visible="no" active="no"/>
<layer number="131" name="prix" color="7" fill="1" visible="yes" active="yes"/>
<layer number="132" name="test" color="7" fill="1" visible="yes" active="yes"/>
<layer number="144" name="Drill_legend" color="7" fill="1" visible="yes" active="yes"/>
<layer number="150" name="Notes" color="7" fill="1" visible="yes" active="yes"/>
<layer number="151" name="HeatSink" color="7" fill="1" visible="yes" active="yes"/>
<layer number="152" name="_bDocu" color="7" fill="1" visible="no" active="no"/>
<layer number="153" name="FabDoc1" color="6" fill="1" visible="no" active="no"/>
<layer number="154" name="FabDoc2" color="2" fill="1" visible="no" active="no"/>
<layer number="155" name="FabDoc3" color="7" fill="15" visible="no" active="no"/>
<layer number="199" name="Contour" color="7" fill="1" visible="no" active="no"/>
<layer number="200" name="200bmp" color="1" fill="10" visible="yes" active="yes"/>
<layer number="201" name="201bmp" color="2" fill="10" visible="yes" active="yes"/>
<layer number="202" name="202bmp" color="7" fill="1" visible="yes" active="yes"/>
<layer number="203" name="203bmp" color="7" fill="1" visible="yes" active="yes"/>
<layer number="204" name="204bmp" color="7" fill="1" visible="yes" active="yes"/>
<layer number="205" name="205bmp" color="7" fill="1" visible="yes" active="yes"/>
<layer number="206" name="206bmp" color="7" fill="1" visible="yes" active="yes"/>
<layer number="207" name="207bmp" color="7" fill="1" visible="yes" active="yes"/>
<layer number="208" name="208bmp" color="7" fill="1" visible="yes" active="yes"/>
<layer number="209" name="209bmp" color="7" fill="1" visible="yes" active="yes"/>
<layer number="210" name="210bmp" color="7" fill="1" visible="yes" active="yes"/>
<layer number="211" name="211bmp" color="7" fill="1" visible="yes" active="yes"/>
<layer number="212" name="212bmp" color="7" fill="1" visible="yes" active="yes"/>
<layer number="213" name="213bmp" color="7" fill="1" visible="yes" active="yes"/>
<layer number="214" name="214bmp" color="7" fill="1" visible="yes" active="yes"/>
<layer number="215" name="215bmp" color="7" fill="1" visible="yes" active="yes"/>
<layer number="216" name="216bmp" color="7" fill="1" visible="yes" active="yes"/>
<layer number="217" name="217bmp" color="7" fill="1" visible="yes" active="yes"/>
<layer number="218" name="218bmp" color="7" fill="1" visible="yes" active="yes"/>
<layer number="219" name="219bmp" color="7" fill="1" visible="yes" active="yes"/>
<layer number="220" name="220bmp" color="7" fill="1" visible="yes" active="yes"/>
<layer number="221" name="221bmp" color="7" fill="1" visible="yes" active="yes"/>
<layer number="222" name="222bmp" color="7" fill="1" visible="yes" active="yes"/>
<layer number="223" name="223bmp" color="7" fill="1" visible="yes" active="yes"/>
<layer number="224" name="224bmp" color="7" fill="1" visible="yes" active="yes"/>
<layer number="248" name="Housing" color="7" fill="1" visible="no" active="no"/>
<layer number="249" name="Edge" color="7" fill="1" visible="no" active="no"/>
<layer number="250" name="Descript" color="7" fill="1" visible="yes" active="yes"/>
<layer number="251" name="SMDround" color="7" fill="1" visible="yes" active="yes"/>
<layer number="254" name="cooling" color="7" fill="1" visible="yes" active="yes"/>
</layers>
<schematic xreflabel="%F%N/%S.%C%R" xrefpart="/%S.%C%R">
<libraries>
<library name="thonkiconn">
<packages>
<package name="WQP-PJ301M-12_JACK">
<wire x1="-4.5" y1="6" x2="-1.5" y2="6" width="0.127" layer="21"/>
<wire x1="-1.5" y1="6" x2="1.5" y2="6" width="0.127" layer="21"/>
<wire x1="1.5" y1="6" x2="4.5" y2="6" width="0.127" layer="21"/>
<wire x1="-4.5" y1="6" x2="-4.5" y2="-4.5" width="0.127" layer="21"/>
<wire x1="-4.5" y1="-4.5" x2="0.2" y2="-4.5" width="0.127" layer="21"/>
<wire x1="0.2" y1="-4.5" x2="4.5" y2="-4.5" width="0.127" layer="21"/>
<wire x1="4.5" y1="-4.5" x2="4.5" y2="6" width="0.127" layer="21"/>
<circle x="0" y="0" radius="3.162275" width="0.127" layer="21"/>
<wire x1="-1.5" y1="6" x2="-1.5" y2="4" width="0.127" layer="21"/>
<wire x1="-1.5" y1="4" x2="1.5" y2="4" width="0.127" layer="21"/>
<wire x1="1.5" y1="4" x2="1.5" y2="6" width="0.127" layer="21"/>
<pad name="P$1" x="0" y="5" drill="1.1" thermals="no"/>
<pad name="P$2" x="0" y="-3.5" drill="1.1"/>
<pad name="P$3" x="0" y="-6.5" drill="1.1"/>
<circle x="0" y="0" radius="2.690721875" width="0.127" layer="21"/>
<wire x1="-0.2" y1="-4.6" x2="-0.2" y2="-6.7" width="0.127" layer="21"/>
<wire x1="-0.2" y1="-6.7" x2="0.2" y2="-6.7" width="0.127" layer="21"/>
<wire x1="0.2" y1="-6.7" x2="0.2" y2="-4.5" width="0.127" layer="21"/>
<rectangle x1="-2.8" y1="-2.8" x2="2.8" y2="2.8" layer="41"/>
<text x="-4.7498" y="-4.4704" size="1.27" layer="21" rot="R90">&gt;NAME</text>
</package>
<package name="WQP-PJ301M-12_JACK_BENT">
<wire x1="-4.5" y1="6" x2="-1.5" y2="6" width="0.127" layer="21"/>
<wire x1="-1.5" y1="6" x2="1.5" y2="6" width="0.127" layer="21"/>
<wire x1="1.5" y1="6" x2="4.5" y2="6" width="0.127" layer="21"/>
<wire x1="-4.5" y1="6" x2="-4.5" y2="-4.5" width="0.127" layer="21"/>
<wire x1="-4.5" y1="-4.5" x2="0.2" y2="-4.5" width="0.127" layer="21"/>
<wire x1="0.2" y1="-4.5" x2="4.5" y2="-4.5" width="0.127" layer="21"/>
<wire x1="4.5" y1="-4.5" x2="4.5" y2="6" width="0.127" layer="21"/>
<circle x="0" y="0" radius="3.162275" width="0.127" layer="21"/>
<wire x1="-1.5" y1="6" x2="-1.5" y2="4" width="0.127" layer="21"/>
<wire x1="-1.5" y1="4" x2="1.5" y2="4" width="0.127" layer="21"/>
<wire x1="1.5" y1="4" x2="1.5" y2="6" width="0.127" layer="21"/>
<pad name="P$1" x="0" y="5" drill="1.1" thermals="no"/>
<pad name="P$2" x="0" y="-3.5" drill="1.1"/>
<pad name="P$3" x="0" y="-5.5475" drill="1.1"/>
<circle x="0" y="0" radius="2.690721875" width="0.127" layer="21"/>
<wire x1="-0.2" y1="-4.6" x2="-0.2" y2="-5.43" width="0.127" layer="21"/>
<wire x1="-0.2" y1="-5.43" x2="0.2" y2="-5.43" width="0.127" layer="21"/>
<wire x1="0.2" y1="-5.43" x2="0.2" y2="-4.5" width="0.127" layer="21"/>
<rectangle x1="-2.8" y1="-2.8" x2="2.8" y2="2.8" layer="41"/>
<text x="-4.7498" y="-4.4704" size="1.27" layer="21" rot="R90">&gt;NAME</text>
</package>
</packages>
<symbols>
<symbol name="JACK">
<wire x1="-2.54" y1="2.54" x2="0" y2="2.54" width="0.1524" layer="94"/>
<wire x1="0" y1="2.54" x2="1.524" y2="1.016" width="0.1524" layer="94"/>
<wire x1="1.524" y1="1.016" x2="2.286" y2="1.778" width="0.1524" layer="94"/>
<wire x1="-2.54" y1="0" x2="-0.762" y2="0" width="0.1524" layer="94"/>
<wire x1="-0.762" y1="0" x2="-0.762" y2="2.286" width="0.1524" layer="94"/>
<wire x1="-0.762" y1="2.286" x2="-1.016" y2="1.524" width="0.254" layer="94"/>
<wire x1="-1.016" y1="1.524" x2="-0.508" y2="1.524" width="0.254" layer="94"/>
<wire x1="-0.508" y1="1.524" x2="-0.762" y2="2.286" width="0.254" layer="94"/>
<wire x1="-2.54" y1="-2.54" x2="4.572" y2="-2.54" width="0.1524" layer="94"/>
<text x="-2.54" y="4.064" size="1.778" layer="95">&gt;NAME</text>
<text x="-2.54" y="-6.096" size="1.778" layer="96">&gt;VALUE</text>
<rectangle x1="2.286" y1="-0.508" x2="7.874" y2="0.508" layer="94" rot="R90"/>
<pin name="1" x="-5.08" y="-2.54" visible="pad" length="short" direction="pas"/>
<pin name="2" x="-5.08" y="2.54" visible="pad" length="short" direction="pas"/>
<pin name="3" x="-5.08" y="0" visible="pad" length="short" direction="pas"/>
</symbol>
</symbols>
<devicesets>
<deviceset name="WQP-PJ301M-12_JACK">
<gates>
<gate name="G$1" symbol="JACK" x="0" y="0"/>
</gates>
<devices>
<device name="" package="WQP-PJ301M-12_JACK">
<connects>
<connect gate="G$1" pin="1" pad="P$3"/>
<connect gate="G$1" pin="2" pad="P$1"/>
<connect gate="G$1" pin="3" pad="P$2"/>
</connects>
<technologies>
<technology name=""/>
</technologies>
</device>
<device name="BENT" package="WQP-PJ301M-12_JACK_BENT">
<connects>
<connect gate="G$1" pin="1" pad="P$3"/>
<connect gate="G$1" pin="2" pad="P$1"/>
<connect gate="G$1" pin="3" pad="P$2"/>
</connects>
<technologies>
<technology name=""/>
</technologies>
</device>
</devices>
</deviceset>
</devicesets>
</library>
<library name="supply1">
<description>&lt;b&gt;Supply Symbols&lt;/b&gt;&lt;p&gt;
 GND, VCC, 0V, +5V, -5V, etc.&lt;p&gt;
 Please keep in mind, that these devices are necessary for the
 automatic wiring of the supply signals.&lt;p&gt;
 The pin name defined in the symbol is identical to the net which is to be wired automatically.&lt;p&gt;
 In this library the device names are the same as the pin names of the symbols, therefore the correct signal names appear next to the supply symbols in the schematic.&lt;p&gt;
 &lt;author&gt;Created by librarian@cadsoft.de&lt;/author&gt;</description>
<packages>
</packages>
<symbols>
<symbol name="GND">
<wire x1="-1.905" y1="0" x2="1.905" y2="0" width="0.254" layer="94"/>
<text x="-2.54" y="-2.54" size="1.778" layer="96">&gt;VALUE</text>
<pin name="GND" x="0" y="2.54" visible="off" length="short" direction="sup" rot="R270"/>
</symbol>
</symbols>
<devicesets>
<deviceset name="GND" prefix="GND">
<description>&lt;b&gt;SUPPLY SYMBOL&lt;/b&gt;</description>
<gates>
<gate name="1" symbol="GND" x="0" y="0"/>
</gates>
<devices>
<device name="">
<technologies>
<technology name=""/>
</technologies>
</device>
</devices>
</deviceset>
</devicesets>
</library>
<library name="con-lsta">
<description>&lt;b&gt;Female Headers etc.&lt;/b&gt;&lt;p&gt;
Naming:&lt;p&gt;
FE = female&lt;p&gt;
# contacts - # rows&lt;p&gt;
W = angled&lt;p&gt;
&lt;author&gt;Created by librarian@cadsoft.de&lt;/author&gt;</description>
<packages>
<package name="FE10-2">
<description>&lt;b&gt;FEMALE HEADER&lt;/b&gt;</description>
<wire x1="-12.7" y1="-2.413" x2="-12.7" y2="2.413" width="0.1524" layer="21"/>
<wire x1="-12.7" y1="2.413" x2="-12.065" y2="3.048" width="0.1524" layer="21" curve="-90"/>
<wire x1="-12.7" y1="-2.413" x2="-12.065" y2="-3.048" width="0.1524" layer="21" curve="90"/>
<wire x1="-12.065" y1="3.048" x2="12.065" y2="3.048" width="0.1524" layer="21"/>
<wire x1="12.7" y1="-2.413" x2="12.7" y2="2.413" width="0.1524" layer="21"/>
<wire x1="-12.065" y1="-3.048" x2="12.065" y2="-3.048" width="0.1524" layer="21"/>
<wire x1="12.065" y1="3.048" x2="12.7" y2="2.413" width="0.1524" layer="21" curve="-90"/>
<wire x1="12.065" y1="-3.048" x2="12.7" y2="-2.413" width="0.1524" layer="21" curve="90"/>
<circle x="-11.43" y="-1.27" radius="0.127" width="0.4064" layer="51"/>
<circle x="-11.43" y="1.27" radius="0.127" width="0.4064" layer="51"/>
<circle x="-8.89" y="-1.27" radius="0.127" width="0.4064" layer="51"/>
<circle x="-8.89" y="1.27" radius="0.127" width="0.4064" layer="51"/>
<circle x="-6.35" y="-1.27" radius="0.127" width="0.4064" layer="51"/>
<circle x="-6.35" y="1.27" radius="0.127" width="0.4064" layer="51"/>
<circle x="-3.81" y="-1.27" radius="0.127" width="0.4064" layer="51"/>
<circle x="-3.81" y="1.27" radius="0.127" width="0.4064" layer="51"/>
<circle x="-1.27" y="-1.27" radius="0.127" width="0.4064" layer="51"/>
<circle x="-1.27" y="1.27" radius="0.127" width="0.4064" layer="51"/>
<circle x="-11.43" y="-1.27" radius="0.889" width="0.1524" layer="51"/>
<circle x="-11.43" y="1.27" radius="0.889" width="0.1524" layer="51"/>
<circle x="-8.89" y="1.27" radius="0.889" width="0.1524" layer="51"/>
<circle x="-6.35" y="1.27" radius="0.889" width="0.1524" layer="51"/>
<circle x="-3.81" y="1.27" radius="0.889" width="0.1524" layer="51"/>
<circle x="-1.27" y="1.27" radius="0.889" width="0.1524" layer="51"/>
<circle x="-8.89" y="-1.27" radius="0.889" width="0.1524" layer="51"/>
<circle x="-6.35" y="-1.27" radius="0.889" width="0.1524" layer="51"/>
<circle x="-3.81" y="-1.27" radius="0.889" width="0.1524" layer="51"/>
<circle x="-1.27" y="-1.27" radius="0.889" width="0.1524" layer="51"/>
<circle x="1.27" y="-1.27" radius="0.127" width="0.4064" layer="51"/>
<circle x="1.27" y="1.27" radius="0.127" width="0.4064" layer="51"/>
<circle x="3.81" y="-1.27" radius="0.127" width="0.4064" layer="51"/>
<circle x="3.81" y="1.27" radius="0.127" width="0.4064" layer="51"/>
<circle x="6.35" y="-1.27" radius="0.127" width="0.4064" layer="51"/>
<circle x="6.35" y="1.27" radius="0.127" width="0.4064" layer="51"/>
<circle x="8.89" y="-1.27" radius="0.127" width="0.4064" layer="51"/>
<circle x="8.89" y="1.27" radius="0.127" width="0.4064" layer="51"/>
<circle x="11.43" y="-1.27" radius="0.127" width="0.4064" layer="51"/>
<circle x="11.43" y="1.27" radius="0.127" width="0.4064" layer="51"/>
<circle x="1.27" y="-1.27" radius="0.889" width="0.1524" layer="51"/>
<circle x="1.27" y="1.27" radius="0.889" width="0.1524" layer="51"/>
<circle x="3.81" y="1.27" radius="0.889" width="0.1524" layer="51"/>
<circle x="6.35" y="1.27" radius="0.889" width="0.1524" layer="51"/>
<circle x="8.89" y="1.27" radius="0.889" width="0.1524" layer="51"/>
<circle x="11.43" y="1.27" radius="0.889" width="0.1524" layer="51"/>
<circle x="3.81" y="-1.27" radius="0.889" width="0.1524" layer="51"/>
<circle x="6.35" y="-1.27" radius="0.889" width="0.1524" layer="51"/>
<circle x="8.89" y="-1.27" radius="0.889" width="0.1524" layer="51"/>
<circle x="11.43" y="-1.27" radius="0.889" width="0.1524" layer="51"/>
<pad name="1" x="-11.43" y="1.27" drill="0.9144" shape="octagon"/>
<pad name="2" x="-11.43" y="-1.27" drill="0.9144" shape="octagon"/>
<pad name="3" x="-8.89" y="1.27" drill="0.9144" shape="octagon"/>
<pad name="4" x="-8.89" y="-1.27" drill="0.9144" shape="octagon"/>
<pad name="5" x="-6.35" y="1.27" drill="0.9144" shape="octagon"/>
<pad name="6" x="-6.35" y="-1.27" drill="0.9144" shape="octagon"/>
<pad name="7" x="-3.81" y="1.27" drill="0.9144" shape="octagon"/>
<pad name="8" x="-3.81" y="-1.27" drill="0.9144" shape="octagon"/>
<pad name="9" x="-1.27" y="1.27" drill="0.9144" shape="octagon"/>
<pad name="10" x="-1.27" y="-1.27" drill="0.9144" shape="octagon"/>
<pad name="11" x="1.27" y="1.27" drill="0.9144" shape="octagon"/>
<pad name="12" x="1.27" y="-1.27" drill="0.9144" shape="octagon"/>
<pad name="13" x="3.81" y="1.27" drill="0.9144" shape="octagon"/>
<pad name="14" x="3.81" y="-1.27" drill="0.9144" shape="octagon"/>
<pad name="15" x="6.35" y="1.27" drill="0.9144" shape="octagon"/>
<pad name="16" x="6.35" y="-1.27" drill="0.9144" shape="octagon"/>
<pad name="17" x="8.89" y="1.27" drill="0.9144" shape="octagon"/>
<pad name="18" x="8.89" y="-1.27" drill="0.9144" shape="octagon"/>
<pad name="19" x="11.43" y="1.27" drill="0.9144" shape="octagon"/>
<pad name="20" x="11.43" y="-1.27" drill="0.9144" shape="octagon"/>
<text x="-7.62" y="3.429" size="1.27" layer="25" ratio="10">&gt;NAME</text>
<text x="-11.811" y="3.429" size="1.27" layer="21" ratio="10">1</text>
<text x="10.541" y="-4.699" size="1.27" layer="21" ratio="10">20</text>
<text x="-12.7" y="-4.699" size="1.27" layer="27" ratio="10">&gt;VALUE</text>
</package>
</packages>
<symbols>
<symbol name="FE10-2">
<wire x1="3.81" y1="-12.7" x2="-3.81" y2="-12.7" width="0.4064" layer="94"/>
<wire x1="-1.905" y1="-5.715" x2="-1.905" y2="-4.445" width="0.254" layer="94" curve="-180" cap="flat"/>
<wire x1="-1.905" y1="-8.255" x2="-1.905" y2="-6.985" width="0.254" layer="94" curve="-180" cap="flat"/>
<wire x1="-1.905" y1="-10.795" x2="-1.905" y2="-9.525" width="0.254" layer="94" curve="-180" cap="flat"/>
<wire x1="1.905" y1="-4.445" x2="1.905" y2="-5.715" width="0.254" layer="94" curve="-180" cap="flat"/>
<wire x1="1.905" y1="-6.985" x2="1.905" y2="-8.255" width="0.254" layer="94" curve="-180" cap="flat"/>
<wire x1="1.905" y1="-9.525" x2="1.905" y2="-10.795" width="0.254" layer="94" curve="-180" cap="flat"/>
<wire x1="-1.905" y1="-0.635" x2="-1.905" y2="0.635" width="0.254" layer="94" curve="-180" cap="flat"/>
<wire x1="-1.905" y1="-3.175" x2="-1.905" y2="-1.905" width="0.254" layer="94" curve="-180" cap="flat"/>
<wire x1="1.905" y1="0.635" x2="1.905" y2="-0.635" width="0.254" layer="94" curve="-180" cap="flat"/>
<wire x1="1.905" y1="-1.905" x2="1.905" y2="-3.175" width="0.254" layer="94" curve="-180" cap="flat"/>
<wire x1="-1.905" y1="6.985" x2="-1.905" y2="8.255" width="0.254" layer="94" curve="-180" cap="flat"/>
<wire x1="-1.905" y1="4.445" x2="-1.905" y2="5.715" width="0.254" layer="94" curve="-180" cap="flat"/>
<wire x1="-1.905" y1="1.905" x2="-1.905" y2="3.175" width="0.254" layer="94" curve="-180" cap="flat"/>
<wire x1="1.905" y1="8.255" x2="1.905" y2="6.985" width="0.254" layer="94" curve="-180" cap="flat"/>
<wire x1="1.905" y1="5.715" x2="1.905" y2="4.445" width="0.254" layer="94" curve="-180" cap="flat"/>
<wire x1="1.905" y1="3.175" x2="1.905" y2="1.905" width="0.254" layer="94" curve="-180" cap="flat"/>
<wire x1="-3.81" y1="15.24" x2="-3.81" y2="-12.7" width="0.4064" layer="94"/>
<wire x1="3.81" y1="-12.7" x2="3.81" y2="15.24" width="0.4064" layer="94"/>
<wire x1="-3.81" y1="15.24" x2="3.81" y2="15.24" width="0.4064" layer="94"/>
<wire x1="-1.905" y1="12.065" x2="-1.905" y2="13.335" width="0.254" layer="94" curve="-180" cap="flat"/>
<wire x1="-1.905" y1="9.525" x2="-1.905" y2="10.795" width="0.254" layer="94" curve="-180" cap="flat"/>
<wire x1="1.905" y1="13.335" x2="1.905" y2="12.065" width="0.254" layer="94" curve="-180" cap="flat"/>
<wire x1="1.905" y1="10.795" x2="1.905" y2="9.525" width="0.254" layer="94" curve="-180" cap="flat"/>
<text x="-3.81" y="-15.24" size="1.778" layer="96">&gt;VALUE</text>
<text x="-3.81" y="16.002" size="1.778" layer="95">&gt;NAME</text>
<pin name="1" x="-7.62" y="-10.16" visible="pad" length="middle" direction="pas" swaplevel="1"/>
<pin name="3" x="-7.62" y="-7.62" visible="pad" length="middle" direction="pas" swaplevel="1"/>
<pin name="5" x="-7.62" y="-5.08" visible="pad" length="middle" direction="pas" swaplevel="1"/>
<pin name="2" x="7.62" y="-10.16" visible="pad" length="middle" direction="pas" swaplevel="1" rot="R180"/>
<pin name="4" x="7.62" y="-7.62" visible="pad" length="middle" direction="pas" swaplevel="1" rot="R180"/>
<pin name="6" x="7.62" y="-5.08" visible="pad" length="middle" direction="pas" swaplevel="1" rot="R180"/>
<pin name="7" x="-7.62" y="-2.54" visible="pad" length="middle" direction="pas" swaplevel="1"/>
<pin name="9" x="-7.62" y="0" visible="pad" length="middle" direction="pas" swaplevel="1"/>
<pin name="8" x="7.62" y="-2.54" visible="pad" length="middle" direction="pas" swaplevel="1" rot="R180"/>
<pin name="10" x="7.62" y="0" visible="pad" length="middle" direction="pas" swaplevel="1" rot="R180"/>
<pin name="11" x="-7.62" y="2.54" visible="pad" length="middle" direction="pas" swaplevel="1"/>
<pin name="13" x="-7.62" y="5.08" visible="pad" length="middle" direction="pas" swaplevel="1"/>
<pin name="15" x="-7.62" y="7.62" visible="pad" length="middle" direction="pas" swaplevel="1"/>
<pin name="12" x="7.62" y="2.54" visible="pad" length="middle" direction="pas" swaplevel="1" rot="R180"/>
<pin name="14" x="7.62" y="5.08" visible="pad" length="middle" direction="pas" swaplevel="1" rot="R180"/>
<pin name="16" x="7.62" y="7.62" visible="pad" length="middle" direction="pas" swaplevel="1" rot="R180"/>
<pin name="17" x="-7.62" y="10.16" visible="pad" length="middle" direction="pas" swaplevel="1"/>
<pin name="19" x="-7.62" y="12.7" visible="pad" length="middle" direction="pas" swaplevel="1"/>
<pin name="18" x="7.62" y="10.16" visible="pad" length="middle" direction="pas" swaplevel="1" rot="R180"/>
<pin name="20" x="7.62" y="12.7" visible="pad" length="middle" direction="pas" swaplevel="1" rot="R180"/>
</symbol>
</symbols>
<devicesets>
<deviceset name="FE10-2" prefix="SV" uservalue="yes">
<description>&lt;b&gt;FEMALE HEADER&lt;/b&gt;</description>
<gates>
<gate name="G$1" symbol="FE10-2" x="0" y="0"/>
</gates>
<devices>
<device name="" package="FE10-2">
<connects>
<connect gate="G$1" pin="1" pad="1"/>
<connect gate="G$1" pin="10" pad="10"/>
<connect gate="G$1" pin="11" pad="11"/>
<connect gate="G$1" pin="12" pad="12"/>
<connect gate="G$1" pin="13" pad="13"/>
<connect gate="G$1" pin="14" pad="14"/>
<connect gate="G$1" pin="15" pad="15"/>
<connect gate="G$1" pin="16" pad="16"/>
<connect gate="G$1" pin="17" pad="17"/>
<connect gate="G$1" pin="18" pad="18"/>
<connect gate="G$1" pin="19" pad="19"/>
<connect gate="G$1" pin="2" pad="2"/>
<connect gate="G$1" pin="20" pad="20"/>
<connect gate="G$1" pin="3" pad="3"/>
<connect gate="G$1" pin="4" pad="4"/>
<connect gate="G$1" pin="5" pad="5"/>
<connect gate="G$1" pin="6" pad="6"/>
<connect gate="G$1" pin="7" pad="7"/>
<connect gate="G$1" pin="8" pad="8"/>
<connect gate="G$1" pin="9" pad="9"/>
</connects>
<technologies>
<technology name="">
<attribute name="MF" value="" constant="no"/>
<attribute name="MPN" value="" constant="no"/>
<attribute name="OC_FARNELL" value="unknown" constant="no"/>
<attribute name="OC_NEWARK" value="unknown" constant="no"/>
</technology>
</technologies>
</device>
</devices>
</deviceset>
</devicesets>
</library>
</libraries>
<attributes>
</attributes>
<variantdefs>
</variantdefs>
<classes>
<class number="0" name="default" width="0" drill="0">
</class>
</classes>
<parts>
<part name="U$1" library="thonkiconn" deviceset="WQP-PJ301M-12_JACK" device="BENT" value="WQP-PJ301M-12_JACKBENT"/>
<part name="U$2" library="thonkiconn" deviceset="WQP-PJ301M-12_JACK" device="BENT" value="WQP-PJ301M-12_JACKBENT"/>
<part name="U$3" library="thonkiconn" deviceset="WQP-PJ301M-12_JACK" device="BENT" value="WQP-PJ301M-12_JACKBENT"/>
<part name="U$4" library="thonkiconn" deviceset="WQP-PJ301M-12_JACK" device="BENT" value="WQP-PJ301M-12_JACKBENT"/>
<part name="U$5" library="thonkiconn" deviceset="WQP-PJ301M-12_JACK" device="BENT" value="WQP-PJ301M-12_JACKBENT"/>
<part name="U$6" library="thonkiconn" deviceset="WQP-PJ301M-12_JACK" device="BENT" value="WQP-PJ301M-12_JACKBENT"/>
<part name="U$7" library="thonkiconn" deviceset="WQP-PJ301M-12_JACK" device="BENT" value="WQP-PJ301M-12_JACKBENT"/>
<part name="U$8" library="thonkiconn" deviceset="WQP-PJ301M-12_JACK" device="BENT" value="WQP-PJ301M-12_JACKBENT"/>
<part name="U$9" library="thonkiconn" deviceset="WQP-PJ301M-12_JACK" device="BENT" value="WQP-PJ301M-12_JACKBENT"/>
<part name="GND1" library="supply1" deviceset="GND" device=""/>
<part name="GND2" library="supply1" deviceset="GND" device=""/>
<part name="GND3" library="supply1" deviceset="GND" device=""/>
<part name="SV1" library="con-lsta" deviceset="FE10-2" device=""/>
<part name="GND4" library="supply1" deviceset="GND" device=""/>
</parts>
<sheets>
<sheet>
<plain>
</plain>
<instances>
<instance part="U$1" gate="G$1" x="35.56" y="93.98"/>
<instance part="U$2" gate="G$1" x="78.74" y="93.98"/>
<instance part="U$3" gate="G$1" x="119.38" y="93.98"/>
<instance part="U$4" gate="G$1" x="35.56" y="78.74"/>
<instance part="U$5" gate="G$1" x="78.74" y="78.74"/>
<instance part="U$6" gate="G$1" x="119.38" y="76.2"/>
<instance part="U$7" gate="G$1" x="35.56" y="60.96"/>
<instance part="U$8" gate="G$1" x="78.74" y="60.96"/>
<instance part="U$9" gate="G$1" x="119.38" y="60.96"/>
<instance part="GND1" gate="1" x="17.78" y="48.26"/>
<instance part="GND2" gate="1" x="58.42" y="48.26"/>
<instance part="GND3" gate="1" x="101.6" y="48.26"/>
<instance part="SV1" gate="G$1" x="40.64" y="20.32"/>
<instance part="GND4" gate="1" x="27.94" y="2.54"/>
</instances>
<busses>
</busses>
<nets>
<net name="GND" class="0">
<segment>
<pinref part="U$7" gate="G$1" pin="1"/>
<pinref part="GND1" gate="1" pin="GND"/>
<wire x1="30.48" y1="58.42" x2="17.78" y2="58.42" width="0.1524" layer="91"/>
<wire x1="17.78" y1="58.42" x2="17.78" y2="50.8" width="0.1524" layer="91"/>
<junction x="17.78" y="58.42"/>
<pinref part="U$4" gate="G$1" pin="1"/>
<wire x1="30.48" y1="76.2" x2="17.78" y2="76.2" width="0.1524" layer="91"/>
<wire x1="17.78" y1="76.2" x2="17.78" y2="58.42" width="0.1524" layer="91"/>
<pinref part="U$1" gate="G$1" pin="1"/>
<wire x1="30.48" y1="91.44" x2="17.78" y2="91.44" width="0.1524" layer="91"/>
<wire x1="17.78" y1="91.44" x2="17.78" y2="76.2" width="0.1524" layer="91"/>
<junction x="17.78" y="76.2"/>
</segment>
<segment>
<pinref part="U$8" gate="G$1" pin="1"/>
<pinref part="GND2" gate="1" pin="GND"/>
<wire x1="73.66" y1="58.42" x2="58.42" y2="58.42" width="0.1524" layer="91"/>
<wire x1="58.42" y1="58.42" x2="58.42" y2="50.8" width="0.1524" layer="91"/>
<pinref part="U$2" gate="G$1" pin="1"/>
<wire x1="73.66" y1="91.44" x2="58.42" y2="91.44" width="0.1524" layer="91"/>
<wire x1="58.42" y1="91.44" x2="58.42" y2="76.2" width="0.1524" layer="91"/>
<pinref part="U$5" gate="G$1" pin="1"/>
<wire x1="58.42" y1="76.2" x2="58.42" y2="58.42" width="0.1524" layer="91"/>
<wire x1="73.66" y1="76.2" x2="58.42" y2="76.2" width="0.1524" layer="91"/>
<junction x="58.42" y="76.2"/>
<junction x="58.42" y="58.42"/>
</segment>
<segment>
<pinref part="U$9" gate="G$1" pin="1"/>
<pinref part="GND3" gate="1" pin="GND"/>
<wire x1="114.3" y1="58.42" x2="101.6" y2="58.42" width="0.1524" layer="91"/>
<wire x1="101.6" y1="58.42" x2="101.6" y2="50.8" width="0.1524" layer="91"/>
<pinref part="U$6" gate="G$1" pin="1"/>
<wire x1="114.3" y1="73.66" x2="101.6" y2="73.66" width="0.1524" layer="91"/>
<wire x1="101.6" y1="73.66" x2="101.6" y2="58.42" width="0.1524" layer="91"/>
<pinref part="U$3" gate="G$1" pin="1"/>
<wire x1="114.3" y1="91.44" x2="101.6" y2="91.44" width="0.1524" layer="91"/>
<wire x1="101.6" y1="91.44" x2="101.6" y2="73.66" width="0.1524" layer="91"/>
<junction x="101.6" y="73.66"/>
<junction x="101.6" y="58.42"/>
</segment>
<segment>
<pinref part="SV1" gate="G$1" pin="9"/>
<wire x1="33.02" y1="20.32" x2="25.4" y2="20.32" width="0.1524" layer="91"/>
<label x="25.4" y="20.32" size="1.778" layer="95"/>
</segment>
<segment>
<pinref part="SV1" gate="G$1" pin="10"/>
<wire x1="48.26" y1="20.32" x2="58.42" y2="20.32" width="0.1524" layer="91"/>
<label x="50.8" y="20.32" size="1.778" layer="95"/>
</segment>
</net>
<net name="SIG_1" class="0">
<segment>
<pinref part="U$1" gate="G$1" pin="2"/>
<wire x1="30.48" y1="96.52" x2="17.78" y2="96.52" width="0.1524" layer="91"/>
<label x="17.78" y="96.52" size="1.778" layer="95"/>
</segment>
<segment>
<pinref part="SV1" gate="G$1" pin="3"/>
<wire x1="33.02" y1="12.7" x2="25.4" y2="12.7" width="0.1524" layer="91"/>
<label x="25.4" y="12.7" size="1.778" layer="95"/>
</segment>
</net>
<net name="RET_1" class="0">
<segment>
<pinref part="U$1" gate="G$1" pin="3"/>
<wire x1="30.48" y1="93.98" x2="17.78" y2="93.98" width="0.1524" layer="91"/>
<label x="17.78" y="93.98" size="1.778" layer="95"/>
</segment>
<segment>
<pinref part="SV1" gate="G$1" pin="4"/>
<wire x1="48.26" y1="12.7" x2="58.42" y2="12.7" width="0.1524" layer="91"/>
<label x="50.8" y="12.7" size="1.778" layer="95"/>
</segment>
</net>
<net name="SIG_2" class="0">
<segment>
<pinref part="U$2" gate="G$1" pin="2"/>
<wire x1="73.66" y1="96.52" x2="55.88" y2="96.52" width="0.1524" layer="91"/>
<label x="55.88" y="96.52" size="1.778" layer="95"/>
</segment>
<segment>
<pinref part="SV1" gate="G$1" pin="11"/>
<wire x1="33.02" y1="22.86" x2="25.4" y2="22.86" width="0.1524" layer="91"/>
<label x="25.4" y="22.86" size="1.778" layer="95"/>
</segment>
</net>
<net name="RET_2" class="0">
<segment>
<pinref part="U$2" gate="G$1" pin="3"/>
<wire x1="73.66" y1="93.98" x2="55.88" y2="93.98" width="0.1524" layer="91"/>
<label x="55.88" y="93.98" size="1.778" layer="95"/>
</segment>
<segment>
<pinref part="SV1" gate="G$1" pin="12"/>
<wire x1="48.26" y1="22.86" x2="58.42" y2="22.86" width="0.1524" layer="91"/>
<label x="50.8" y="22.86" size="1.778" layer="95"/>
</segment>
</net>
<net name="SIG_3" class="0">
<segment>
<pinref part="U$3" gate="G$1" pin="2"/>
<wire x1="114.3" y1="96.52" x2="93.98" y2="96.52" width="0.1524" layer="91"/>
<label x="93.98" y="96.52" size="1.778" layer="95"/>
</segment>
<segment>
<pinref part="SV1" gate="G$1" pin="19"/>
<wire x1="33.02" y1="33.02" x2="25.4" y2="33.02" width="0.1524" layer="91"/>
<label x="25.4" y="33.02" size="1.778" layer="95"/>
</segment>
</net>
<net name="RET_3" class="0">
<segment>
<pinref part="U$3" gate="G$1" pin="3"/>
<wire x1="114.3" y1="93.98" x2="93.98" y2="93.98" width="0.1524" layer="91"/>
<label x="96.52" y="93.98" size="1.778" layer="95"/>
</segment>
<segment>
<pinref part="SV1" gate="G$1" pin="20"/>
<wire x1="48.26" y1="33.02" x2="58.42" y2="33.02" width="0.1524" layer="91"/>
<label x="50.8" y="33.02" size="1.778" layer="95"/>
</segment>
</net>
<net name="SIG_4" class="0">
<segment>
<pinref part="U$4" gate="G$1" pin="2"/>
<wire x1="30.48" y1="81.28" x2="20.32" y2="81.28" width="0.1524" layer="91"/>
<label x="20.32" y="81.28" size="1.778" layer="95"/>
</segment>
<segment>
<pinref part="SV1" gate="G$1" pin="5"/>
<wire x1="33.02" y1="15.24" x2="25.4" y2="15.24" width="0.1524" layer="91"/>
<label x="25.4" y="15.24" size="1.778" layer="95"/>
</segment>
</net>
<net name="RET_4" class="0">
<segment>
<pinref part="U$4" gate="G$1" pin="3"/>
<wire x1="30.48" y1="78.74" x2="20.32" y2="78.74" width="0.1524" layer="91"/>
<label x="20.32" y="78.74" size="1.778" layer="95"/>
</segment>
<segment>
<pinref part="SV1" gate="G$1" pin="6"/>
<wire x1="48.26" y1="15.24" x2="58.42" y2="15.24" width="0.1524" layer="91"/>
<label x="50.8" y="15.24" size="1.778" layer="95"/>
</segment>
</net>
<net name="SIG_7" class="0">
<segment>
<pinref part="U$7" gate="G$1" pin="2"/>
<wire x1="30.48" y1="63.5" x2="20.32" y2="63.5" width="0.1524" layer="91"/>
<label x="20.32" y="63.5" size="1.778" layer="95"/>
</segment>
<segment>
<pinref part="SV1" gate="G$1" pin="1"/>
<wire x1="33.02" y1="10.16" x2="27.94" y2="10.16" width="0.1524" layer="91"/>
<label x="25.4" y="10.16" size="1.778" layer="95"/>
</segment>
</net>
<net name="RET_7" class="0">
<segment>
<pinref part="U$7" gate="G$1" pin="3"/>
<wire x1="30.48" y1="60.96" x2="20.32" y2="60.96" width="0.1524" layer="91"/>
<label x="20.32" y="60.96" size="1.778" layer="95"/>
</segment>
<segment>
<pinref part="SV1" gate="G$1" pin="2"/>
<wire x1="48.26" y1="10.16" x2="53.34" y2="10.16" width="0.1524" layer="91"/>
<label x="50.8" y="10.16" size="1.778" layer="95"/>
</segment>
</net>
<net name="SIG_5" class="0">
<segment>
<pinref part="U$5" gate="G$1" pin="2"/>
<wire x1="73.66" y1="81.28" x2="60.96" y2="81.28" width="0.1524" layer="91"/>
<label x="60.96" y="81.28" size="1.778" layer="95"/>
</segment>
<segment>
<pinref part="SV1" gate="G$1" pin="13"/>
<wire x1="33.02" y1="25.4" x2="25.4" y2="25.4" width="0.1524" layer="91"/>
<label x="25.4" y="25.4" size="1.778" layer="95"/>
</segment>
</net>
<net name="RET_5" class="0">
<segment>
<pinref part="U$5" gate="G$1" pin="3"/>
<wire x1="73.66" y1="78.74" x2="60.96" y2="78.74" width="0.1524" layer="91"/>
<label x="60.96" y="78.74" size="1.778" layer="95"/>
</segment>
<segment>
<pinref part="SV1" gate="G$1" pin="14"/>
<wire x1="48.26" y1="25.4" x2="58.42" y2="25.4" width="0.1524" layer="91"/>
<label x="50.8" y="25.4" size="1.778" layer="95"/>
</segment>
</net>
<net name="SIG_8" class="0">
<segment>
<pinref part="U$8" gate="G$1" pin="2"/>
<wire x1="73.66" y1="63.5" x2="60.96" y2="63.5" width="0.1524" layer="91"/>
<label x="60.96" y="63.5" size="1.778" layer="95"/>
</segment>
<segment>
<pinref part="SV1" gate="G$1" pin="7"/>
<wire x1="33.02" y1="17.78" x2="25.4" y2="17.78" width="0.1524" layer="91"/>
<label x="25.4" y="17.78" size="1.778" layer="95"/>
</segment>
</net>
<net name="RET_8" class="0">
<segment>
<pinref part="U$8" gate="G$1" pin="3"/>
<wire x1="73.66" y1="60.96" x2="60.96" y2="60.96" width="0.1524" layer="91"/>
<label x="60.96" y="60.96" size="1.778" layer="95"/>
</segment>
<segment>
<pinref part="SV1" gate="G$1" pin="8"/>
<wire x1="48.26" y1="17.78" x2="58.42" y2="17.78" width="0.1524" layer="91"/>
<label x="50.8" y="17.78" size="1.778" layer="95"/>
</segment>
</net>
<net name="SIG_6" class="0">
<segment>
<pinref part="U$6" gate="G$1" pin="2"/>
<wire x1="114.3" y1="78.74" x2="106.68" y2="78.74" width="0.1524" layer="91"/>
<label x="109.22" y="78.74" size="1.778" layer="95"/>
</segment>
<segment>
<pinref part="SV1" gate="G$1" pin="17"/>
<wire x1="33.02" y1="30.48" x2="25.4" y2="30.48" width="0.1524" layer="91"/>
<label x="25.4" y="30.48" size="1.778" layer="95"/>
</segment>
</net>
<net name="RET_6" class="0">
<segment>
<pinref part="U$6" gate="G$1" pin="3"/>
<wire x1="114.3" y1="76.2" x2="106.68" y2="76.2" width="0.1524" layer="91"/>
<label x="106.68" y="76.2" size="1.778" layer="95"/>
</segment>
<segment>
<pinref part="SV1" gate="G$1" pin="18"/>
<wire x1="48.26" y1="30.48" x2="58.42" y2="30.48" width="0.1524" layer="91"/>
<label x="50.8" y="30.48" size="1.778" layer="95"/>
</segment>
</net>
<net name="SIG_9" class="0">
<segment>
<pinref part="U$9" gate="G$1" pin="2"/>
<wire x1="114.3" y1="63.5" x2="104.14" y2="63.5" width="0.1524" layer="91"/>
<label x="106.68" y="63.5" size="1.778" layer="95"/>
</segment>
<segment>
<pinref part="SV1" gate="G$1" pin="15"/>
<wire x1="33.02" y1="27.94" x2="25.4" y2="27.94" width="0.1524" layer="91"/>
<label x="25.4" y="27.94" size="1.778" layer="95"/>
</segment>
</net>
<net name="RET_9" class="0">
<segment>
<pinref part="U$9" gate="G$1" pin="3"/>
<wire x1="114.3" y1="60.96" x2="104.14" y2="60.96" width="0.1524" layer="91"/>
<label x="106.68" y="60.96" size="1.778" layer="95"/>
</segment>
<segment>
<pinref part="SV1" gate="G$1" pin="16"/>
<wire x1="48.26" y1="27.94" x2="58.42" y2="27.94" width="0.1524" layer="91"/>
<label x="50.8" y="27.94" size="1.778" layer="95"/>
</segment>
</net>
</nets>
</sheet>
</sheets>
</schematic>
</drawing>
</eagle>
